Sentiment Analysis in R
…
nlp_result$entities[[2]][cols]

## # A tibble: 31 x 5
##    name             type     salience score magnitude
##    <chr>            <chr>       <dbl> <dbl>     <dbl>
##  1 African-American PERSON    0.0311    0         0  
##  2 Alabama          LOCATION  0.0311    0         0  
##  3 antibiotic       OTHER     0.00835   0.7       0.7
##  4 disease          OTHER     0.0119    0         0  
##  5 Investigators    PERSON    0.131    -0.2       0.2
##  6 Macon County     LOCATION  0.0311    0         0  
##  7 men              PERSON    0.0557   -0.3       0.7
##  8 men              PERSON    0.0557   -0.3       0.7
##  9 men              PERSON    0.0557   -0.3       0.7
## 10 men              PERSON    0.0197    0.5       0.5
## # ... with 21 more rows
…
